Bioestadística con R: Bases de ggplot2 y la aplicación de los principios de visualización
…
  M. en C. Arturo Bell Enríquez García

VIDEO

Introducción y Datos

Antes de comenzar una visualización es necesario saber qué queremos responder con ella. En este caso, utilizaremos la base de datos mpg incluída en ggplot2. El primer paso es, entonces, conocer la información que contiene. Para ello guardaremos la base en una variable que llamaremos df1:

library(ggplot2)

df1 <- ggplot2::mpg
df1

# A tibble: 234 x 11
   manufacturer model    displ  year   cyl trans   drv     cty   hwy fl    class
   <chr>        <chr>    <dbl> <int> <int> <chr>   <chr> <int> <int> <chr> <chr>
 1 audi         a4         1.8  1999     4 auto(l… f        18    29 p     comp…
 2 audi         a4         1.8  1999     4 manual… f        21    29 p     comp…
 3 audi         a4         2    2008     4 manual… f        20    31 p     comp…
 4 audi         a4         2    2008     4 auto(a… f        21    30 p     comp…
 5 audi         a4         2.8  1999     6 auto(l… f        16    26 p     comp…
 6 audi         a4         2.8  1999     6 manual… f        18    26 p     comp…
 7 audi         a4         3.1  2008     6 auto(a… f        18    27 p     comp…
 8 audi         a4 quat…   1.8  1999     4 manual… 4        18    26 p     comp…
 9 audi         a4 quat…   1.8  1999     4 auto(l… 4        16    25 p     comp…
10 audi         a4 quat…   2    2008     4 manual… 4        20    28 p     comp…
# … with 224 more rows
…
